info face="Arial" size=60 bold=0 italic=0 charset="" unicode=1 stretchH=100 smooth=1 aa=2 padding=0,0,0,0 spacing=1,1 outline=0
common lineHeight=60 base=49 scaleW=256 scaleH=256 pages=2 packed=0 alphaChnl=0 redChnl=4 greenChnl=4 blueChnl=4
page id=0 file="large_0.png"
page id=1 file="large_1.png"
chars count=95
char id=32   x=250   y=42    width=2     height=1     xoffset=0     yoffset=59    xadvance=15    page=0  chnl=15
char id=33   x=39    y=41    width=7     height=40    xoffset=4     yoffset=9     xadvance=14    page=1  chnl=15
char id=34   x=19    y=112   width=15    height=15    xoffset=2     yoffset=9     xadvance=19    page=1  chnl=15
char id=35   x=0     y=175   width=30    height=40    xoffset=0     yoffset=9     xadvance=30    page=0  chnl=15
char id=36   x=161   y=0     width=27    height=47    xoffset=1     yoffset=7     xadvance=30    page=0  chnl=15
char id=37   x=53    y=52    width=42    height=40    xoffset=3     yoffset=9     xadvance=48    page=0  chnl=15
char id=38   x=183   y=89    width=33    height=40    xoffset=2     yoffset=9     xadvance=36    page=0  chnl=15
char id=39   x=35    y=112   width=7     height=15    xoffset=2     yoffset=9     xadvance=10    page=1  chnl=15
char id=40   x=106   y=0     width=14    height=50    xoffset=3     yoffset=9     xadvance=18    page=0  chnl=15
char id=41   x=121   y=0     width=14    height=50    xoffset=3     yoffset=9     xadvance=18    page=0  chnl=15
char id=42   x=0     y=112   width=18    height=17    xoffset=1     yoffset=9     xadvance=21    page=1  chnl=15
char id=43   x=120   y=72    width=27    height=26    xoffset=2     yoffset=16    xadvance=31    page=1  chnl=15
char id=44   x=43    y=112   width=6     height=14    xoffset=4     yoffset=43    xadvance=15    page=1  chnl=15
char id=45   x=125   y=247   width=15    height=5     xoffset=1     yoffset=32    xadvance=18    page=0  chnl=15
char id=46   x=118   y=247   width=6     height=6     xoffset=4     yoffset=43    xadvance=15    page=0  chnl=15
char id=47   x=235   y=0     width=16    height=40    xoffset=0     yoffset=9     xadvance=15    page=1  chnl=15
char id=48   x=207   y=215   width=26    height=40    xoffset=2     yoffset=9     xadvance=30    page=0  chnl=15
char id=49   x=23    y=41    width=15    height=40    xoffset=5     yoffset=9     xadvance=30    page=1  chnl=15
char id=50   x=152   y=175   width=27    height=40    xoffset=1     yoffset=9     xadvance=30    page=0  chnl=15
char id=51   x=180   y=215   width=26    height=40    xoffset=2     yoffset=9     xadvance=30    page=0  chnl=15
char id=52   x=0     y=216   width=28    height=39    xoffset=0     yoffset=10    xadvance=30    page=0  chnl=15
char id=53   x=56    y=216   width=26    height=39    xoffset=2     yoffset=10    xadvance=30    page=0  chnl=15
char id=54   x=180   y=174   width=27    height=40    xoffset=1     yoffset=9     xadvance=30    page=0  chnl=15
char id=55   x=29    y=216   width=26    height=39    xoffset=2     yoffset=10    xadvance=30    page=0  chnl=15
char id=56   x=208   y=171   width=26    height=40    xoffset=2     yoffset=9     xadvance=30    page=0  chnl=15
char id=57   x=54    y=0     width=26    height=40    xoffset=2     yoffset=9     xadvance=30    page=1  chnl=15
char id=58   x=245   y=41    width=6     height=29    xoffset=4     yoffset=20    xadvance=15    page=1  chnl=15
char id=59   x=99    y=216   width=6     height=37    xoffset=4     yoffset=20    xadvance=15    page=0  chnl=15
char id=60   x=148   y=72    width=27    height=26    xoffset=2     yoffset=16    xadvance=31    page=1  chnl=15
char id=61   x=228   y=71    width=27    height=17    xoffset=2     yoffset=21    xadvance=31    page=1  chnl=15
char id=62   x=176   y=72    width=27    height=26    xoffset=2     yoffset=16    xadvance=31    page=1  chnl=15
char id=63   x=27    y=0     width=26    height=40    xoffset=2     yoffset=9     xadvance=30    page=1  chnl=15
char id=64   x=0     y=0     width=51    height=51    xoffset=2     yoffset=9     xadvance=55    page=0  chnl=15
char id=65   x=212   y=44    width=37    height=40    xoffset=0     yoffset=9     xadvance=36    page=0  chnl=15
char id=66   x=93    y=175   width=30    height=40    xoffset=3     yoffset=9     xadvance=36    page=0  chnl=15
char id=67   x=111   y=93    width=35    height=40    xoffset=2     yoffset=9     xadvance=39    page=0  chnl=15
char id=68   x=0     y=134   width=33    height=40    xoffset=4     yoffset=9     xadvance=39    page=0  chnl=15
char id=69   x=31    y=175   width=30    height=40    xoffset=4     yoffset=9     xadvance=36    page=0  chnl=15
char id=70   x=124   y=175   width=27    height=40    xoffset=4     yoffset=9     xadvance=33    page=0  chnl=15
char id=71   x=174   y=48    width=37    height=40    xoffset=2     yoffset=9     xadvance=42    page=0  chnl=15
char id=72   x=198   y=130   width=31    height=40    xoffset=4     yoffset=9     xadvance=39    page=0  chnl=15
char id=73   x=47    y=41    width=6     height=40    xoffset=4     yoffset=9     xadvance=15    page=1  chnl=15
char id=74   x=0     y=41    width=22    height=40    xoffset=1     yoffset=9     xadvance=27    page=1  chnl=15
char id=75   x=217   y=85    width=33    height=40    xoffset=3     yoffset=9     xadvance=36    page=0  chnl=15
char id=76   x=230   y=126   width=25    height=40    xoffset=3     yoffset=9     xadvance=30    page=0  chnl=15
char id=77   x=96    y=52    width=38    height=40    xoffset=3     yoffset=9     xadvance=44    page=0  chnl=15
char id=78   x=67    y=134   width=32    height=40    xoffset=3     yoffset=9     xadvance=39    page=0  chnl=15
char id=79   x=135   y=51    width=38    height=40    xoffset=2     yoffset=9     xadvance=42    page=0  chnl=15
char id=80   x=62    y=175   width=30    height=40    xoffset=4     yoffset=9     xadvance=36    page=0  chnl=15
char id=81   x=189   y=0     width=39    height=43    xoffset=2     yoffset=9     xadvance=42    page=0  chnl=15
char id=82   x=147   y=92    width=35    height=40    xoffset=4     yoffset=9     xadvance=39    page=0  chnl=15
char id=83   x=133   y=134   width=32    height=40    xoffset=2     yoffset=9     xadvance=36    page=0  chnl=15
char id=84   x=100   y=134   width=32    height=40    xoffset=1     yoffset=9     xadvance=33    page=0  chnl=15
char id=85   x=166   y=133   width=31    height=40    xoffset=4     yoffset=9     xadvance=39    page=0  chnl=15
char id=86   x=74    y=93    width=36    height=40    xoffset=0     yoffset=9     xadvance=36    page=0  chnl=15
char id=87   x=0     y=52    width=52    height=40    xoffset=0     yoffset=9     xadvance=52    page=0  chnl=15
char id=88   x=37    y=93    width=36    height=40    xoffset=0     yoffset=9     xadvance=36    page=0  chnl=15
char id=89   x=0     y=93    width=36    height=40    xoffset=0     yoffset=9     xadvance=35    page=0  chnl=15
char id=90   x=34    y=134   width=32    height=40    xoffset=0     yoffset=9     xadvance=33    page=0  chnl=15
char id=91   x=149   y=0     width=11    height=50    xoffset=3     yoffset=9     xadvance=15    page=0  chnl=15
char id=92   x=234   y=212   width=16    height=40    xoffset=0     yoffset=9     xadvance=15    page=0  chnl=15
char id=93   x=136   y=0     width=12    height=50    xoffset=0     yoffset=9     xadvance=15    page=0  chnl=15
char id=94   x=204   y=72    width=23    height=21    xoffset=1     yoffset=9     xadvance=24    page=1  chnl=15
char id=95   x=141   y=247   width=32    height=4     xoffset=-1    yoffset=55    xadvance=30    page=0  chnl=15
char id=96   x=106   y=247   width=11    height=8     xoffset=2     yoffset=9     xadvance=18    page=0  chnl=15
char id=97   x=146   y=216   width=27    height=30    xoffset=1     yoffset=19    xadvance=30    page=0  chnl=15
char id=98   x=133   y=0     width=25    height=40    xoffset=3     yoffset=9     xadvance=30    page=1  chnl=15
char id=99   x=124   y=41    width=25    height=30    xoffset=2     yoffset=19    xadvance=27    page=1  chnl=15
char id=100  x=159   y=0     width=25    height=40    xoffset=1     yoffset=9     xadvance=30    page=1  chnl=15
char id=101  x=68    y=41    width=27    height=30    xoffset=1     yoffset=19    xadvance=30    page=1  chnl=15
char id=102  x=235   y=167   width=18    height=40    xoffset=0     yoffset=9     xadvance=15    page=0  chnl=15
char id=103  x=229   y=0     width=26    height=41    xoffset=1     yoffset=19    xadvance=30    page=0  chnl=15
char id=104  x=185   y=0     width=24    height=40    xoffset=3     yoffset=9     xadvance=30    page=1  chnl=15
char id=105  x=54    y=41    width=6     height=40    xoffset=3     yoffset=9     xadvance=12    page=1  chnl=15
char id=106  x=87    y=0     width=12    height=51    xoffset=-3    yoffset=9     xadvance=12    page=0  chnl=15
char id=107  x=210   y=0     width=24    height=40    xoffset=3     yoffset=9     xadvance=27    page=1  chnl=15
char id=108  x=61    y=41    width=6     height=40    xoffset=3     yoffset=9     xadvance=12    page=1  chnl=15
char id=109  x=106   y=216   width=39    height=30    xoffset=3     yoffset=19    xadvance=45    page=0  chnl=15
char id=110  x=175   y=41    width=24    height=30    xoffset=3     yoffset=19    xadvance=30    page=1  chnl=15
char id=111  x=96    y=41    width=27    height=30    xoffset=1     yoffset=19    xadvance=30    page=1  chnl=15
char id=112  x=107   y=0     width=25    height=40    xoffset=3     yoffset=19    xadvance=30    page=1  chnl=15
char id=113  x=81    y=0     width=25    height=40    xoffset=1     yoffset=19    xadvance=30    page=1  chnl=15
char id=114  x=200   y=41    width=16    height=30    xoffset=3     yoffset=19    xadvance=18    page=1  chnl=15
char id=115  x=150   y=41    width=24    height=30    xoffset=1     yoffset=19    xadvance=27    page=1  chnl=15
char id=116  x=83    y=216   width=15    height=39    xoffset=0     yoffset=10    xadvance=15    page=0  chnl=15
char id=117  x=95    y=72    width=24    height=29    xoffset=3     yoffset=20    xadvance=30    page=1  chnl=15
char id=118  x=40    y=82    width=27    height=29    xoffset=0     yoffset=20    xadvance=26    page=1  chnl=15
char id=119  x=0     y=82    width=39    height=29    xoffset=0     yoffset=20    xadvance=38    page=1  chnl=15
char id=120  x=217   y=41    width=27    height=29    xoffset=0     yoffset=20    xadvance=26    page=1  chnl=15
char id=121  x=0     y=0     width=26    height=40    xoffset=0     yoffset=20    xadvance=26    page=1  chnl=15
char id=122  x=68    y=72    width=26    height=29    xoffset=0     yoffset=20    xadvance=27    page=1  chnl=15
char id=123  x=70    y=0     width=16    height=51    xoffset=1     yoffset=9     xadvance=18    page=0  chnl=15
char id=124  x=100   y=0     width=5     height=51    xoffset=4     yoffset=9     xadvance=14    page=0  chnl=15
char id=125  x=52    y=0     width=17    height=51    xoffset=0     yoffset=9     xadvance=18    page=0  chnl=15
char id=126  x=50    y=112   width=28    height=10    xoffset=2     yoffset=25    xadvance=31    page=1  chnl=15
kernings count=91
kerning first=32  second=65  amount=-3  
kerning first=32  second=84  amount=-1  
kerning first=32  second=89  amount=-1  
kerning first=121 second=46  amount=-4  
kerning first=121 second=44  amount=-4  
kerning first=119 second=46  amount=-3  
kerning first=119 second=44  amount=-3  
kerning first=118 second=46  amount=-4  
kerning first=118 second=44  amount=-4  
kerning first=114 second=46  amount=-3  
kerning first=49  second=49  amount=-4  
kerning first=65  second=32  amount=-3  
kerning first=65  second=84  amount=-4  
kerning first=65  second=86  amount=-4  
kerning first=65  second=87  amount=-2  
kerning first=65  second=89  amount=-4  
kerning first=65  second=118 amount=-1  
kerning first=65  second=119 amount=-1  
kerning first=65  second=121 amount=-1  
kerning first=114 second=44  amount=-3  
kerning first=70  second=44  amount=-6  
kerning first=70  second=46  amount=-6  
kerning first=70  second=65  amount=-3  
kerning first=76  second=32  amount=-2  
kerning first=76  second=84  amount=-4  
kerning first=76  second=86  amount=-4  
kerning first=76  second=87  amount=-4  
kerning first=76  second=89  amount=-4  
kerning first=76  second=121 amount=-2  
kerning first=102 second=102 amount=-1  
kerning first=80  second=32  amount=-1  
kerning first=80  second=44  amount=-7  
kerning first=80  second=46  amount=-7  
kerning first=80  second=65  amount=-4  
kerning first=82  second=84  amount=-1  
kerning first=82  second=86  amount=-1  
kerning first=82  second=87  amount=-1  
kerning first=82  second=89  amount=-1  
kerning first=84  second=32  amount=-1  
kerning first=84  second=44  amount=-6  
kerning first=84  second=45  amount=-3  
kerning first=84  second=46  amount=-6  
kerning first=84  second=58  amount=-6  
kerning first=89  second=118 amount=-3  
kerning first=84  second=65  amount=-4  
kerning first=84  second=79  amount=-1  
kerning first=84  second=97  amount=-6  
kerning first=84  second=99  amount=-6  
kerning first=84  second=101 amount=-6  
kerning first=84  second=105 amount=-2  
kerning first=84  second=111 amount=-6  
kerning first=84  second=114 amount=-2  
kerning first=84  second=115 amount=-6  
kerning first=84  second=117 amount=-2  
kerning first=84  second=119 amount=-3  
kerning first=84  second=121 amount=-3  
kerning first=86  second=44  amount=-5  
kerning first=86  second=45  amount=-3  
kerning first=86  second=46  amount=-5  
kerning first=86  second=58  amount=-2  
kerning first=89  second=117 amount=-3  
kerning first=86  second=65  amount=-4  
kerning first=86  second=97  amount=-4  
kerning first=86  second=101 amount=-3  
kerning first=86  second=105 amount=-1  
kerning first=86  second=111 amount=-3  
kerning first=86  second=114 amount=-2  
kerning first=86  second=117 amount=-2  
kerning first=86  second=121 amount=-2  
kerning first=87  second=44  amount=-3  
kerning first=87  second=45  amount=-1  
kerning first=87  second=46  amount=-3  
kerning first=87  second=58  amount=-1  
kerning first=89  second=113 amount=-5  
kerning first=87  second=65  amount=-2  
kerning first=87  second=97  amount=-2  
kerning first=87  second=101 amount=-1  
kerning first=89  second=112 amount=-4  
kerning first=87  second=111 amount=-1  
kerning first=87  second=114 amount=-1  
kerning first=87  second=117 amount=-1  
kerning first=89  second=111 amount=-5  
kerning first=89  second=32  amount=-1  
kerning first=89  second=44  amount=-7  
kerning first=89  second=45  amount=-5  
kerning first=89  second=46  amount=-7  
kerning first=89  second=58  amount=-3  
kerning first=89  second=105 amount=-2  
kerning first=89  second=65  amount=-4  
kerning first=89  second=97  amount=-4  
kerning first=89  second=101 amount=-5  
